{
	"criteria": {
		"requirement": {
			"trigger": "minecraft:placed_block",
			"conditions": {
				"location": [
					{
						"condition": "minecraft:reference",
						"name": "hintful_advancements:is_part_of_conduit_frame"
					}
				]
			}
		}
	},
	"rewards": {
		"function": "hintful_advancements:place_conduit_frame_block/reward"
	}
}
