{
	"parent": "minecraft:adventure/very_very_frightening",
	"display": {
		"icon": { "id": "minecraft:creeper_head" },
		"title": {
			"translate": "hintful_advancements.advancements.adventure.get_charged_explosion_head.title",
			"fallback": "Getting Ahead"
		},
		"description": {
			"translate": "hintful_advancements.advancements.adventure.get_charged_explosion_head.description",
			"fallback": "Hit a Creeper, Piglin, Skeleton, or Zombie; then let a charged Creeper deal the final blow"
		},
		"frame": "challenge"
	},
	"criteria": {
		"requirement": {
			"trigger": "minecraft:player_killed_entity",
			"conditions": {
				"entity": { "type": "#zeb:drops_head_from_charged_explosion" },
				"killing_blow": {
					"source_entity": {
						"type": "minecraft:creeper",
						"nbt": "{powered:1b}"
					}
				}
			}
		}
	},
	"rewards": { "experience": 50 }
}
