{
	"replace": false,
	"values": [
		{ "id": "minecraft:enchanting_table", "required": false },
		{
			"id": "colourful_enchanting_tables:white_enchanting_table",
			"required": false
		},
		{
			"id": "colourful_enchanting_tables:orange_enchanting_table",
			"required": false
		},
		{
			"id": "colourful_enchanting_tables:magenta_enchanting_table",
			"required": false
		},
		{
			"id": "colourful_enchanting_tables:light_blue_enchanting_table",
			"required": false
		},
		{
			"id": "colourful_enchanting_tables:yellow_enchanting_table",
			"required": false
		},
		{
			"id": "colourful_enchanting_tables:lime_enchanting_table",
			"required": false
		},
		{
			"id": "colourful_enchanting_tables:pink_enchanting_table",
			"required": false
		},
		{
			"id": "colourful_enchanting_tables:gray_enchanting_table",
			"required": false
		},
		{
			"id": "colourful_enchanting_tables:light_gray_enchanting_table",
			"required": false
		},
		{
			"id": "colourful_enchanting_tables:cyan_enchanting_table",
			"required": false
		},
		{
			"id": "colourful_enchanting_tables:purple_enchanting_table",
			"required": false
		},
		{
			"id": "colourful_enchanting_tables:blue_enchanting_table",
			"required": false
		},
		{
			"id": "colourful_enchanting_tables:brown_enchanting_table",
			"required": false
		},
		{
			"id": "colourful_enchanting_tables:green_enchanting_table",
			"required": false
		},
		{
			"id": "colourful_enchanting_tables:black_enchanting_table",
			"required": false
		},
		{ "id": "met:white_enchanting_table", "required": false },
		{ "id": "met:orange_enchanting_table", "required": false },
		{ "id": "met:magenta_enchanting_table", "required": false },
		{ "id": "met:light_blue_enchanting_table", "required": false },
		{ "id": "met:yellow_enchanting_table", "required": false },
		{ "id": "met:lime_enchanting_table", "required": false },
		{ "id": "met:pink_enchanting_table", "required": false },
		{ "id": "met:gray_enchanting_table", "required": false },
		{ "id": "met:light_gray_enchanting_table", "required": false },
		{ "id": "met:cyan_enchanting_table", "required": false },
		{ "id": "met:purple_enchanting_table", "required": false },
		{ "id": "met:blue_enchanting_table", "required": false },
		{ "id": "met:brown_enchanting_table", "required": false },
		{ "id": "met:green_enchanting_table", "required": false },
		{ "id": "met:black_enchanting_table", "required": false }
	]
}
