[
	{
		"condition": "minecraft:location_check",
		"predicate": { "fluid": { "fluids": "#minecraft:water" } }
	},
	{
		"condition": "minecraft:any_of",
		"terms": [
			{
				"condition": "minecraft:location_check",
				"offsetX": 1,
				"predicate": { "block": { "blocks": "minecraft:conduit" } }
			},
			{
				"condition": "minecraft:location_check",
				"offsetY": 1,
				"predicate": { "block": { "blocks": "minecraft:conduit" } }
			},
			{
				"condition": "minecraft:location_check",
				"offsetZ": 1,
				"predicate": { "block": { "blocks": "minecraft:conduit" } }
			},
			{
				"condition": "minecraft:location_check",
				"offsetX": -1,
				"predicate": { "block": { "blocks": "minecraft:conduit" } }
			},
			{
				"condition": "minecraft:location_check",
				"offsetY": -1,
				"predicate": { "block": { "blocks": "minecraft:conduit" } }
			},
			{
				"condition": "minecraft:location_check",
				"offsetZ": -1,
				"predicate": { "block": { "blocks": "minecraft:conduit" } }
			},
			{
				"condition": "minecraft:location_check",
				"offsetX": 1,
				"offsetY": 1,
				"predicate": { "block": { "blocks": "minecraft:conduit" } }
			},
			{
				"condition": "minecraft:location_check",
				"offsetX": 1,
				"offsetZ": 1,
				"predicate": { "block": { "blocks": "minecraft:conduit" } }
			},
			{
				"condition": "minecraft:location_check",
				"offsetY": 1,
				"offsetZ": 1,
				"predicate": { "block": { "blocks": "minecraft:conduit" } }
			},
			{
				"condition": "minecraft:location_check",
				"offsetX": -1,
				"offsetY": -1,
				"predicate": { "block": { "blocks": "minecraft:conduit" } }
			},
			{
				"condition": "minecraft:location_check",
				"offsetX": -1,
				"offsetZ": -1,
				"predicate": { "block": { "blocks": "minecraft:conduit" } }
			},
			{
				"condition": "minecraft:location_check",
				"offsetY": -1,
				"offsetZ": -1,
				"predicate": { "block": { "blocks": "minecraft:conduit" } }
			},
			{
				"condition": "minecraft:location_check",
				"offsetX": 1,
				"offsetY": -1,
				"predicate": { "block": { "blocks": "minecraft:conduit" } }
			},
			{
				"condition": "minecraft:location_check",
				"offsetX": 1,
				"offsetZ": -1,
				"predicate": { "block": { "blocks": "minecraft:conduit" } }
			},
			{
				"condition": "minecraft:location_check",
				"offsetY": 1,
				"offsetZ": -1,
				"predicate": { "block": { "blocks": "minecraft:conduit" } }
			},
			{
				"condition": "minecraft:location_check",
				"offsetX": -1,
				"offsetY": 1,
				"predicate": { "block": { "blocks": "minecraft:conduit" } }
			},
			{
				"condition": "minecraft:location_check",
				"offsetX": -1,
				"offsetZ": 1,
				"predicate": { "block": { "blocks": "minecraft:conduit" } }
			},
			{
				"condition": "minecraft:location_check",
				"offsetY": -1,
				"offsetZ": 1,
				"predicate": { "block": { "blocks": "minecraft:conduit" } }
			},
			{
				"condition": "minecraft:location_check",
				"offsetX": 1,
				"offsetY": 1,
				"offsetZ": 1,
				"predicate": { "block": { "blocks": "minecraft:conduit" } }
			},
			{
				"condition": "minecraft:location_check",
				"offsetX": -1,
				"offsetY": -1,
				"offsetZ": -1,
				"predicate": { "block": { "blocks": "minecraft:conduit" } }
			},
			{
				"condition": "minecraft:location_check",
				"offsetX": 1,
				"offsetY": 1,
				"offsetZ": -1,
				"predicate": { "block": { "blocks": "minecraft:conduit" } }
			},
			{
				"condition": "minecraft:location_check",
				"offsetX": 1,
				"offsetY": -1,
				"offsetZ": 1,
				"predicate": { "block": { "blocks": "minecraft:conduit" } }
			},
			{
				"condition": "minecraft:location_check",
				"offsetX": 1,
				"offsetY": -1,
				"offsetZ": -1,
				"predicate": { "block": { "blocks": "minecraft:conduit" } }
			},
			{
				"condition": "minecraft:location_check",
				"offsetX": -1,
				"offsetY": 1,
				"offsetZ": 1,
				"predicate": { "block": { "blocks": "minecraft:conduit" } }
			},
			{
				"condition": "minecraft:location_check",
				"offsetX": -1,
				"offsetY": 1,
				"offsetZ": -1,
				"predicate": { "block": { "blocks": "minecraft:conduit" } }
			},
			{
				"condition": "minecraft:location_check",
				"offsetX": -1,
				"offsetY": -1,
				"offsetZ": 1,
				"predicate": { "block": { "blocks": "minecraft:conduit" } }
			}
		]
	}
]
