{
	"parent": "minecraft:end/elytra",
	"display": {
		"icon": { "id": "minecraft:firework_rocket" },
		"title": {
			"translate": "hintful_advancements.advancements.end.fly_above_build_limit.title",
			"fallback": "Rocket Science"
		},
		"description": {
			"translate": "hintful_advancements.advancements.end.fly_above_build_limit.description",
			"fallback": "I wanna fly high"
		},
		"frame": "challenge"
	},
	"criteria": {
		"requirement": {
			"trigger": "minecraft:location",
			"conditions": {
				"player": {
					"equipment": { "chest": { "items": "minecraft:elytra" } },
					"location": { "position": { "y": { "min": 340 } } },
					"nbt": "{FallFlying:1b}"
				}
			}
		}
	},
	"rewards": { "experience": 50 }
}
