{
	"parent": "minecraft:end/root",
	"display": {
		"icon": { "id": "minecraft:carved_pumpkin" },
		"title": {
			"translate": "hintful_advancements.advancements.end.wear_pumpkin_and_name_enderman.title",
			"fallback": "Frienderman"
		},
		"description": {
			"translate": "hintful_advancements.advancements.end.wear_pumpkin_and_name_enderman.description",
			"fallback": "Face an Enderman in a (friendly) game of “tag”"
		},
		"frame": "task"
	},
	"criteria": {
		"requirement": {
			"trigger": "minecraft:player_interacted_with_entity",
			"conditions": {
				"item": { "items": "minecraft:name_tag" },
				"entity": [
					{
						"condition": "minecraft:inverted",
						"term": {
							"condition": "minecraft:entity_properties",
							"entity": "this",
							"predicate": {
								"targeted_entity": { "type": "minecraft:player" }
							}
						}
					}
				],
				"player": {
					"equipment": {
						"head": { "items": "#minecraft:gaze_disguise_equipment" }
					}
				}
			}
		}
	}
}
