{
	"parent": "minecraft:nether/root",
	"display": {
		"icon": { "id": "minecraft:ochre_froglight" },
		"title": {
			"translate": "hintful_advancements.advancements.nether.get_froglight.title",
			"fallback": "Spice Cube"
		},
		"description": {
			"translate": "hintful_advancements.advancements.nether.get_froglight.description",
			"fallback": "Let a Frog feast on a spicier slime"
		},
		"frame": "task"
	},
	"criteria": {
		"requirement": {
			"trigger": "minecraft:inventory_changed",
			"conditions": { "items": [{ "items": "#c:froglights" }] }
		}
	}
}
