{
	"parent": "minecraft:nether/brew_potion",
	"display": {
		"icon": {
			"id": "minecraft:splash_potion",
			"components": { "minecraft:potion_contents": "minecraft:healing" }
		},
		"title": {
			"translate": "hintful_advancements.advancements.nether.hurt_undead_with_healing.title",
			"fallback": "Kill 'Em with Kindness"
		},
		"description": {
			"translate": "hintful_advancements.advancements.nether.hurt_undead_with_healing.description",
			"fallback": "Smite the undead via Splash Potion"
		},
		"frame": "task"
	},
	"criteria": {
		"use_splash_potion": {
			"trigger": "minecraft:player_hurt_entity",
			"conditions": {
				"entity": { "type": "#minecraft:undead" },
				"damage": {
					"type": {
						"direct_entity": {
							"type": "minecraft:potion",
							"nbt": "{Item:{components:{'minecraft:potion_contents':{potion:'minecraft:healing'}}}}"
						}
					}
				}
			}
		},
		"use_strong_splash_potion": {
			"trigger": "minecraft:player_hurt_entity",
			"conditions": {
				"entity": { "type": "#minecraft:undead" },
				"damage": {
					"type": {
						"direct_entity": {
							"type": "minecraft:potion",
							"nbt": "{Item:{components:{'minecraft:potion_contents':{potion:'minecraft:strong_healing'}}}}"
						}
					}
				}
			}
		},
		"use_lingering_potion": {
			"trigger": "minecraft:player_hurt_entity",
			"conditions": {
				"entity": { "type": "#minecraft:undead" },
				"damage": {
					"type": {
						"direct_entity": {
							"type": "minecraft:area_effect_cloud",
							"nbt": "{potion_contents:{potion:'minecraft:healing'}}"
						}
					}
				}
			}
		},
		"use_strong_lingering_potion": {
			"trigger": "minecraft:player_hurt_entity",
			"conditions": {
				"entity": { "type": "#minecraft:undead" },
				"damage": {
					"type": {
						"direct_entity": {
							"type": "minecraft:area_effect_cloud",
							"nbt": "{potion_contents:{potion:'minecraft:strong_healing'}}"
						}
					}
				}
			}
		}
	},
	"requirements": [
		[
			"use_splash_potion",
			"use_strong_splash_potion",
			"use_lingering_potion",
			"use_strong_lingering_potion"
		]
	]
}
