{
	"parent": "hintful_advancements:adventure/get_map",
	"display": {
		"icon": { "id": "minecraft:heart_of_the_sea" },
		"title": {
			"translate": "hintful_advancements.advancements.adventure.get_heart_of_the_sea.title",
			"fallback": "X Marks the Spot"
		},
		"description": {
			"translate": "hintful_advancements.advancements.adventure.get_heart_of_the_sea.description",
			"fallback": "Follow a lost sailor's Map"
		},
		"frame": "task"
	},
	"criteria": {
		"requirement": {
			"trigger": "minecraft:inventory_changed",
			"conditions": { "items": [{ "items": "minecraft:heart_of_the_sea" }] }
		}
	}
}
