{
	"parent": "minecraft:adventure/summon_iron_golem",
	"display": {
		"icon": { "id": "minecraft:iron_ingot" },
		"title": {
			"translate": "hintful_advancements.advancements.adventure.repair_iron_golem.title",
			"fallback": "Iron Supplements"
		},
		"description": {
			"translate": "hintful_advancements.advancements.adventure.repair_iron_golem.description",
			"fallback": "Repair an Iron Golem without using magic"
		},
		"frame": "task"
	},
	"criteria": {
		"requirement": {
			"trigger": "minecraft:player_interacted_with_entity",
			"conditions": {
				"item": { "items": "minecraft:iron_ingot" },
				"entity": { "type": "minecraft:iron_golem" }
			}
		}
	}
}
