{
	"criteria": {
		"requirement": {
			"trigger": "minecraft:player_interacted_with_entity",
			"conditions": {
				"item": { "items": "minecraft:bowl" },
				"entity": {
					"type": "minecraft:mooshroom",
					"components": { "minecraft:mooshroom/variant": "brown" }
				},
				"player": {
					"type_specific": {
						"type": "player",
						"advancements": {
							"hintful_advancements:husbandry/get_suspicious_stew_from_mooshroom": false
						}
					}
				}
			}
		}
	},
	"rewards": {
		"function": "hintful_advancements:use_bowl_on_brown_mooshroom/reward"
	}
}
